module main

go 1.20

require (
	git.sr.ht/~kvo/format v0.0.0-20230903093439-b8c2524c5599
	git.sr.ht/~kvo/libgo v0.0.0-20230903092857-6b7620dc1599
	github.com/golang/freetype v0.0.0-20170609003504-e2365dfdc4a0
	github.com/redis/go-redis/v9 v9.1.0
	golang.org/x/image v0.11.0
	golang.org/x/term v0.11.0
)

require (
	github.com/cespare/xxhash/v2 v2.2.0 // indirect
	github.com/dgryski/go-rendezvous v0.0.0-20200823014737-9f7001d12a5f // indirect
	golang.org/x/net v0.14.0 // indirect
	golang.org/x/sys v0.11.0 // indirect
)
